<?xml version="1.0" encoding="UTF-8" standalone="no"?>
<!-- Created with Inkscape (http://www.inkscape.org/) -->

<svg
   xmlns:dc="http://purl.org/dc/elements/1.1/"
   xmlns:cc="http://creativecommons.org/ns#"
   xmlns:rdf="http://www.w3.org/1999/02/22-rdf-syntax-ns#"
   xmlns:svg="http://www.w3.org/2000/svg"
   xmlns="http://www.w3.org/2000/svg"
   xmlns:sodipodi="http://sodipodi.sourceforge.net/DTD/sodipodi-0.dtd"
   xmlns:inkscape="http://www.inkscape.org/namespaces/inkscape"
   width="105mm"
   height="148mm"
   viewBox="0 0 105 148"
   version="1.1"
   id="svg1780"
   inkscape:version="0.92.4 5da689c313, 2019-01-14"
   sodipodi:docname="donde_esta_el_feminismo_en_el_ciberfeminismo_contra.svg"
   inkscape:export-filename="/home/fauno/Projects/pip/utopia.partidopirata.com.ar/assets/covers/donde_esta_el_feminismo_en_el_ciberfeminismo_contra.png"
   inkscape:export-xdpi="300"
   inkscape:export-ydpi="300">
  <defs
     id="defs1774" />
  <sodipodi:namedview
     id="base"
     pagecolor="#ffffff"
     bordercolor="#666666"
     borderopacity="1.0"
     inkscape:pageopacity="0.0"
     inkscape:pageshadow="2"
     inkscape:zoom="0.77246094"
     inkscape:cx="-14.907712"
     inkscape:cy="249.30468"
     inkscape:document-units="mm"
     inkscape:current-layer="layer1"
     showgrid="false"
     inkscape:window-width="1280"
     inkscape:window-height="767"
     inkscape:window-x="0"
     inkscape:window-y="33"
     inkscape:window-maximized="0" />
  <metadata
     id="metadata1777">
    <rdf:RDF>
      <cc:Work
         rdf:about="">
        <dc:format>image/svg+xml</dc:format>
        <dc:type
           rdf:resource="http://purl.org/dc/dcmitype/StillImage" />
        <dc:title></dc:title>
      </cc:Work>
    </rdf:RDF>
  </metadata>
  <g
     inkscape:label="Capa 1"
     inkscape:groupmode="layer"
     id="layer1"
     transform="translate(0,-149)">
    <flowRoot
       xml:space="preserve"
       id="flowRoot860"
       style="font-style:normal;font-variant:normal;font-weight:normal;font-stretch:normal;font-size:84.54799652px;line-height:1.25;font-family:Prototype;-inkscape-font-specification:'Prototype, Normal';font-variant-ligatures:normal;font-variant-caps:normal;font-variant-numeric:normal;font-feature-settings:normal;text-align:start;letter-spacing:0px;word-spacing:0px;writing-mode:lr-tb;text-anchor:start;fill:#000000;fill-opacity:1;stroke:none"
       transform="matrix(0.10654465,0,0,0.10654465,49.191211,156.07074)"><flowRegion
         id="flowRegion862"><rect
           id="rect864"
           width="808.12207"
           height="1349.5638"
           x="-373.75644"
           y="51.263348" /></flowRegion><flowPara
         id="flowPara866">cyberfeminism is not a fashion statement / sajbrfeminizm nije usamljen / cyberfeminism is not ideology / cyberfeminismus ist keine theorie / el ciberfeminismo no es una frontera</flowPara></flowRoot>  </g>
</svg>
