<?xml version="1.0" encoding="UTF-8" standalone="no"?>
<!-- Created with Inkscape (http://www.inkscape.org/) -->

<svg
   xmlns:dc="http://purl.org/dc/elements/1.1/"
   xmlns:cc="http://creativecommons.org/ns#"
   xmlns:rdf="http://www.w3.org/1999/02/22-rdf-syntax-ns#"
   xmlns:svg="http://www.w3.org/2000/svg"
   xmlns="http://www.w3.org/2000/svg"
   xmlns:sodipodi="http://sodipodi.sourceforge.net/DTD/sodipodi-0.dtd"
   xmlns:inkscape="http://www.inkscape.org/namespaces/inkscape"
   width="105mm"
   height="74mm"
   viewBox="0 0 372.04724 262.20472"
   id="svg8228"
   version="1.1"
   inkscape:version="0.92.2 5c3e80d, 2017-08-06"
   sodipodi:docname="seis_tesis_sobre_municipalismo_libertario.svg">
  <defs
     id="defs8230" />
  <sodipodi:namedview
     id="base"
     pagecolor="#ffffff"
     bordercolor="#666666"
     borderopacity="1.0"
     inkscape:pageopacity="0.0"
     inkscape:pageshadow="2"
     inkscape:zoom="2.0456378"
     inkscape:cx="294.37371"
     inkscape:cy="133.41405"
     inkscape:document-units="mm"
     inkscape:current-layer="layer1"
     showgrid="false"
     inkscape:snap-bbox="true"
     inkscape:bbox-paths="true"
     inkscape:bbox-nodes="true"
     inkscape:snap-bbox-edge-midpoints="true"
     inkscape:snap-bbox-midpoints="true"
     inkscape:window-width="1280"
     inkscape:window-height="738"
     inkscape:window-x="0"
     inkscape:window-y="62"
     inkscape:window-maximized="0" />
  <metadata
     id="metadata8233">
    <rdf:RDF>
      <cc:Work
         rdf:about="">
        <dc:format>image/svg+xml</dc:format>
        <dc:type
           rdf:resource="http://purl.org/dc/dcmitype/StillImage" />
        <dc:title></dc:title>
      </cc:Work>
    </rdf:RDF>
  </metadata>
  <g
     inkscape:label="Capa 1"
     inkscape:groupmode="layer"
     id="layer1"
     transform="translate(0,-790.15748)">
    <rect
       style="fill:#37c837;fill-opacity:1;stroke-width:1.00113761"
       id="rect3033"
       width="372.04724"
       height="262.20471"
       x="0"
       y="790.15747" />
    <rect
       style="fill:#ffffff;stroke-width:0.99799871"
       id="rect3035"
       width="372.04724"
       height="173.31082"
       x="0"
       y="808.18524" />
    <g
       id="g3370"
       transform="matrix(1.2289588,0,0,1.2338926,-303.35418,-80.667538)">
      <g
         id="text3025"
         style="font-style:normal;font-variant:normal;font-weight:normal;font-stretch:normal;font-size:40px;line-height:125%;font-family:'League Gothic';-inkscape-font-specification:'League Gothic';letter-spacing:0px;word-spacing:0px;fill:#000000;fill-opacity:1;stroke:none"
         transform="translate(-0.25254936,-1.7019788)">
        <text
           id="text3956-0-9"
           y="765.41681"
           x="402.98987"
           style="font-style:normal;font-variant:normal;font-weight:normal;font-stretch:normal;line-height:0%;font-family:FontAwesome;-inkscape-font-specification:FontAwesome;text-align:end;letter-spacing:0px;word-spacing:0px;text-anchor:end;fill:#000000;fill-opacity:1;stroke:none;stroke-width:1px;stroke-linecap:butt;stroke-linejoin:miter;stroke-opacity:1"
           xml:space="preserve"><tspan
             style="font-style:normal;font-variant:normal;font-weight:normal;font-stretch:normal;font-size:25.1960144px;line-height:1.25;font-family:'League Gothic';-inkscape-font-specification:'League Gothic'"
             y="765.41681"
             x="402.98987"
             id="tspan3958-3-1"
             sodipodi:role="line">Murray Bookchin</tspan></text>
        <g
           transform="matrix(0.88293456,0,0,0.88293456,618.99045,-111.46169)"
           id="g4062">
          <text
             xml:space="preserve"
             style="font-style:normal;font-variant:normal;font-weight:normal;font-stretch:normal;line-height:0%;font-family:FontAwesome;-inkscape-font-specification:FontAwesome;text-align:end;letter-spacing:0px;word-spacing:0px;text-anchor:end;fill:#000000;fill-opacity:1;stroke:none;stroke-width:1px;stroke-linecap:butt;stroke-linejoin:miter;stroke-opacity:1"
             x="-112.6953"
             y="1061.0559"
             id="text3956-93"><tspan
               sodipodi:role="line"
               id="tspan3958-38"
               x="-112.6953"
               y="1061.0559"
               style="font-style:normal;font-variant:normal;font-weight:normal;font-stretch:normal;font-size:34.78445053px;line-height:1.25;font-family:'League Gothic';-inkscape-font-specification:'League Gothic'">municipalismo libertario</tspan></text>
          <text
             xml:space="preserve"
             style="font-style:normal;font-variant:normal;font-weight:normal;font-stretch:normal;line-height:0%;font-family:FontAwesome;-inkscape-font-specification:FontAwesome;text-align:end;letter-spacing:0px;word-spacing:0px;text-anchor:end;fill:#000000;fill-opacity:1;stroke:none;stroke-width:1px;stroke-linecap:butt;stroke-linejoin:miter;stroke-opacity:1"
             x="-262.65433"
             y="1030.0476"
             id="text3956-05"><tspan
               sodipodi:role="line"
               id="tspan3958-66"
               x="-262.65433"
               y="1030.0476"
               style="font-style:normal;font-variant:normal;font-weight:normal;font-stretch:normal;font-size:27.05457115px;line-height:1.25;font-family:'League Gothic';-inkscape-font-specification:'League Gothic'">tesis sobre</tspan></text>
          <text
             xml:space="preserve"
             style="font-style:normal;font-variant:normal;font-weight:normal;font-stretch:normal;line-height:0%;font-family:FontAwesome;-inkscape-font-specification:FontAwesome;text-align:end;letter-spacing:0px;word-spacing:0px;text-anchor:end;fill:#000000;fill-opacity:1;stroke:none;stroke-width:1px;stroke-linecap:butt;stroke-linejoin:miter;stroke-opacity:1"
             x="-350.28336"
             y="1066.9836"
             id="text3956-9-0"><tspan
               sodipodi:role="line"
               id="tspan3958-6-4"
               x="-350.28336"
               y="1066.9836"
               style="font-style:normal;font-variant:normal;font-weight:normal;font-stretch:normal;font-size:76.47535706px;line-height:1.25;font-family:'League Gothic';-inkscape-font-specification:'League Gothic'">6</tspan></text>
        </g>
      </g>
    </g>
  </g>
</svg>
